…
This minimum value for `eff` garantizes that after infinite visits a `F% = 100`. 

The equation also fits with the ecological assumption that number of ovules indirectly influences pollen deposition efficiency. We assumed that a higher mean number of ovules coincides with higher receptive stigmatic surface. That would mean that a flower with a higher number of ovules can receive pollen more efficiently because there is more unoccupied stigmatic surface. In the prior formula a high value for `ovu` will result in a higher minimum pollen deposition efficiency `effmin`. 

Finally, here is an example that show the relation between the seed set parameters.
```{r}
# We get the parameter information for a given crop
data_crop <- curve_ovule_parameters("Blueberry",0)

data_crop

# A tibble: 28 x 10
   Crop_name Crop_species    Crop_var Species           svd   ovu  self   eff target_visits min_visits
   <chr>     <chr>           <chr>    <chr>           <dbl> <dbl> <dbl> <dbl>         <dbl>      <dbl>
 1 Blueberry Vaccinium angu~ NA       Megachile rotu~  46.4    63     0 0.576            10          2
 2 Blueberry Vaccinium angu~ NA       Megachile rotu~  51.6    63     0 0.550             9          2
 3 Blueberry Vaccinium angu~ NA       Megachile rotu~ 111.     63     0 0.362             6          1
 4 Blueberry Vaccinium angu~ NA       Bombus ssp. (Q~ 202.     63     0 0.237             4          1
 5 Blueberry Vaccinium angu~ NA       Bombus ssp. (W~ 137.     63     0 0.315             5          1
 6 Blueberry Vaccinium angu~ NA       Andrena ssp.    185.     63     0 0.254             4          1
 7 Blueberry Vaccinium angu~ NA       Halictus ssp.   103.     63     0 0.379             6          1
 8 Blueberry Vaccinium angu~ NA       Apis mellifera   46.8    63     0 0.574            10          2
 9 Blueberry Vaccinium angu~ Aiton    Anthonophora p~  30      63     0 0.677            14          3
10 Blueberry Vaccinium angu~ Aiton    Bombus impatie~  40      63     0 0.612            11          2
# ... with 18 more rows
…
